{
  "homepage": "<homepage/download page for your mod>",
  "1.12.2": {
    "0.4.0-239-alpha": "1.12.2 Alpha Update", 
    // List all versions of your mod for the given Minecraft version, along with their changelogs
  },
  "promos": {
    "1.12.2-latest": "0.4.0-239-alpha",
    // Declare the latest "bleeding-edge" version of your mod for the given Minecraft version
    "1.12.2-recommended": "0.4.0-239-alpha",
    // Declare the latest "stable" version of your mod for the given Minecraft version
  }
}