{
  "homepage": "http://www.minecraftforum.net/forums/mapping-and-modding/minecraft-mods/wip-mods/1444851-1-7-2-1-6-4-primeval-forest-",
  "promos": {
    "1.8.9-latest": "2.0.0",
    "1.8.9-recommended": "2.0.0"
  },
  "1.8.9": {
    "2.0.0": "Initialize Release"
  }
}